Communicating Data
…
```r
*dailyVac %>%
* filter(location %in% ctryList) %>%
* group_by(location) %>%
* select(location, daily_vaccinations_per_million, date) %>%
* mutate(label = if_else(date == max(date),
*                        as.character(location),
*                        NA_character_))
```
]
 
.panel2-timeVac-user[

```
# A tibble: 516 x 4
# Groups:   location [9]
   location  daily_vaccinations_per_million date       label
   <chr>                              <dbl> <date>     <chr>
 1 Argentina                             NA 2020-12-29 <NA> 
 2 Argentina                            346 2020-12-30 <NA> 
 3 Argentina                            346 2020-12-31 <NA> 
 4 Argentina                            245 2021-01-01 <NA> 
 5 Argentina                            194 2021-01-02 <NA> 
 6 Argentina                            164 2021-01-03 <NA> 
 7 Argentina                            143 2021-01-04 <NA> 
 8 Argentina                            177 2021-01-05 <NA> 
 9 Argentina                            181 2021-01-06 <NA> 
10 Argentina                            185 2021-01-07 <NA> 
# … with 506 more rows
```
…
